Project 1
…
There is a lot of information returned by the Census API, but what we actually want is the raw, currently uninterpretable information in example_data$content. To extract these data in a usable form, we can combine the rawToChar() function, which will convert the raw data to human-interpretable data, with the fromJSON() function from the jsonlite package, which will convert our data to a data frame. As a final step, we can coerce our data to a tibble. This will result in cleaner printing.

example_mat<-fromJSON(rawToChar(example_data$content))

colnames(example_mat)<-example_mat[1,]

example_mat<-example_mat[-1,]

example_tbl<-as_tibble(example_mat) |>
  mutate(PWGTP=as.numeric(PWGTP))

example_tbl

# A tibble: 51,580 × 4
   PWGTP SCHL  AGEP  state
   <dbl> <chr> <chr> <chr>
 1    69 19    85    01   
 2    22 17    51    01   
 3    45 11    36    01   
 4     4 1     74    01   
 5    47 19    49    01   
 6    38 17    31    01   
 7    13 19    76    01   
 8    38 13    60    01   
 9    66 14    35    01   
10    31 16    72    01   
# ℹ 51,570 more rows
…
  tbl<-as_tibble(mat)
  
  tbl$PWGTP<-as.numeric(tbl$PWGTP)
  
  return(tbl)
}

That should speed up the process. Let’s test the function on our original API response to ensure it works.

test_tbl<-content_cleaner(example_data)

test_tbl

# A tibble: 51,580 × 4
   PWGTP SCHL  AGEP  state
   <dbl> <chr> <chr> <chr>
 1    69 19    85    01   
 2    22 17    51    01   
 3    45 11    36    01   
 4     4 1     74    01   
 5    47 19    49    01   
 6    38 17    31    01   
 7    13 19    76    01   
 8    38 13    60    01   
 9    66 14    35    01   
10    31 16    72    01   
# ℹ 51,570 more rows
…
Categorical variables are converted to factors with appropriate labels

Geography names replace codes for any geography variables

Missing value codes in numeric variables are changed to missing (NA)

Now that we have the function and generally know how it works, let’s test it. To start, let’s again request educational attainment and age for individuals from Alabama in the 2022 survey.

first_tbl<-census_get(year=2022,catvar=c("SCHL"),numvar=c("AGEP"),
                          geo_level="state",geo_select="Alabama")

first_tbl

# A tibble: 51,580 × 4
   PWGTP  AGEP SCHL                                         state  
   <dbl> <dbl> <fct>                                        <chr>  
 1    69    85 1 or more years of college credit, no degree Alabama
 2    22    51 GED or alternative credential                Alabama
 3    45    36 Grade 8                                      Alabama
 4     4    74 <NA>                                         Alabama
 5    47    49 1 or more years of college credit, no degree Alabama
 6    38    31 GED or alternative credential                Alabama
 7    13    76 1 or more years of college credit, no degree Alabama
 8    38    60 Grade 10                                     Alabama
 9    66    35 Grade 11                                     Alabama
10    31    72 Regular high school diploma                  Alabama
# ℹ 51,570 more rows

This is much better! Age is now numeric, educational attainment is easily interpreted, and we do not need to look up Alabama’s FIPS code to ensure we have the correct state.

Let’s keep testing the function by confirming our default inputs evaluate correctly.

second_tbl<-census_get()

second_tbl

# A tibble: 74,153 × 4
   PWGTP  AGEP SEX    state  
   <dbl> <dbl> <fct>  <chr>  
 1    37    33 Male   Arizona
 2    94    70 Female Arizona
 3    50    17 Female Arizona
 4     6    16 Male   Arizona
 5    80    82 Female Arizona
 6    79    40 Male   Arizona
 7    11    51 Female Arizona
 8    55    69 Male   Arizona
 9    58    51 Male   Arizona
10     9    40 Male   Arizona
# ℹ 74,143 more rows

This is exactly what we expected, so it looks like we correctly specified the defaults.

Now let’s see how one of the time variables display by adding JWAP to the request. When we print the resulting tibble, let’s subset the data to only the individuals who provided a time they arrive at work.

third_tbl<-census_get(numvar=c("AGEP","JWAP"))

third_tbl |> 
  filter(!is.na(JWAP))

# A tibble: 8,165 × 5
   PWGTP  AGEP JWAP   SEX    state  
   <dbl> <dbl> <time> <fct>  <chr>  
 1    59    21 03:52  Female Arizona
 2     7    27 01:22  Male   Arizona
 3    57    22 03:52  Male   Arizona
 4     6    32 10:22  Female Arizona
 5    13    33 10:02  Male   Arizona
 6    51    18 04:02  Female Arizona
 7    16    17 03:17  Male   Arizona
 8    85    31 08:32  Male   Arizona
 9    31    27 01:22  Male   Arizona
10    61    19 02:02  Male   Arizona
# ℹ 8,155 more rows
…
  #Indicating we want the full appended dataset returned
  return(data)
}

We can test the function to ensure it works as intends. First, let’s request the recent birth indicator for individuals living in the Mountain census division in 2016 and 2023. We will produce two different filtered prints to ensure we obtain both years of data; we filter to each year and keep only females. We might request these data if we wanted to analyze changes in birth rates.

first_multiyr_tbl<-census_get_multiyear(years=c(2016,2023),catvar=c("FER","SEX"),geo_level="division",geo_select="Mountain")

first_multiyr_tbl |> 
  filter(year==2016,SEX=="Female")

# A tibble: 116,021 × 6
   PWGTP  AGEP FER                                          SEX   division  year
   <dbl> <dbl> <fct>                                        <fct> <chr>    <dbl>
 1    48    32 No                                           Fema… Mountain  2016
 2    68    12 N/A (less than 15 years/greater than 50 yea… Fema… Mountain  2016
 3    68     8 N/A (less than 15 years/greater than 50 yea… Fema… Mountain  2016
 4    13    26 No                                           Fema… Mountain  2016
 5    83    21 No                                           Fema… Mountain  2016
 6    94    44 No                                           Fema… Mountain  2016
 7    85    14 N/A (less than 15 years/greater than 50 yea… Fema… Mountain  2016
 8    90    41 No                                           Fema… Mountain  2016
 9    82    17 No                                           Fema… Mountain  2016
10    81    15 No                                           Fema… Mountain  2016
# ℹ 116,011 more rows

first_multiyr_tbl |>
  filter(year==2023,SEX=="Female")

# A tibble: 131,840 × 6
   PWGTP  AGEP FER                                          SEX   division  year
   <dbl> <dbl> <fct>                                        <fct> <chr>    <dbl>
 1    39    85 N/A (less than 15 years/greater than 50 yea… Fema… Mountain  2023
 2    63    93 N/A (less than 15 years/greater than 50 yea… Fema… Mountain  2023
 3    73    45 No                                           Fema… Mountain  2023
 4    75    20 No                                           Fema… Mountain  2023
 5    70    28 No                                           Fema… Mountain  2023
 6    18    83 N/A (less than 15 years/greater than 50 yea… Fema… Mountain  2023
 7    12    94 N/A (less than 15 years/greater than 50 yea… Fema… Mountain  2023
 8    91    57 N/A (less than 15 years/greater than 50 yea… Fema… Mountain  2023
 9    47    21 No                                           Fema… Mountain  2023
10   103    20 No                                           Fema… Mountain  2023
# ℹ 131,830 more rows
…
